<svg xmlns="http://www.w3.org/2000/svg" width="30" height="30" viewBox="0 0 30 30">
    <path fill="#FFF" fill-rule="nonzero" d="M6.236 18.272L1.72 22.787a1.006 1.006 0 0 1-1.426 0 1.008 1.008 0 0 1 0-1.426l4.515-4.515a1.008 1.008 0 0 1 1.426 1.426zm2.333 8.65l-1.356 1.356a1.009 1.009 0 0 0 1.426 1.427l1.356-1.356a1.008 1.008 0 0 0-1.426-1.426zm19.88-22.706c-.094.237-.195.489-.298.754l-6.579 16.855c-.935 2.396-1.617 3.654-2.752 3.885-.122.025-.24.036-.354.036-.887 0-1.578-.707-2.427-1.577a26.25 26.25 0 0 1-.07-.07l-10.622.695a1.009 1.009 0 0 1-.78-1.72l5.192-5.191-4.45-4.45c-1.28-1.281-2.029-2.289-1.802-3.352.25-1.169 1.433-1.62 3.223-2.303l.756-.29L24.34.907c2.408-.94 3.692-1.247 4.477-.456.809.815.34 1.988-.369 3.764zM27.096 2.1c-.38.094-1.005.289-2.022.686L8.22 9.366c-.27.105-.527.203-.77.296-.742.283-1.649.63-1.937.86.072.168.328.589 1.224 1.485l4.45 4.45 9.1-9.1a1.009 1.009 0 0 1 1.426 1.425l-9.809 9.809-.004.005-.005.005-4.006 4.005 6.19-.405-1.195-1.194a1.008 1.008 0 0 1 1.426-1.427l2.704 2.703c.166.167.322.326.469.477.329.337.725.742.959.908.187-.212.568-.823 1.252-2.576l6.579-16.855c.105-.27.208-.527.304-.769.18-.452.388-.972.52-1.367z"/>
</svg>
